…
  - First, let’s import the dataset that we
selected:

<!-- end list -->

``` r
d <- read.csv("/Users/khaled/Desktop/Programming/Teaching/Datasets/scrubbed.csv", na.strings = "", stringsAsFactors = F) %>% filter(country == "us")
```

``` r
d %>% count(state, sort = T)
```

    ## # A tibble: 52 x 2
    ##    state     n
    ##    <chr> <int>
    ##  1 ca     8912
    ##  2 wa     3966
    ##  3 fl     3835
    ##  4 tx     3447
    ##  5 ny     2980
    ##  6 il     2499
    ##  7 az     2414
    ##  8 pa     2366
    ##  9 oh     2275
    ## 10 mi     1836
    ## # … with 42 more rows

``` r
d %>% count(shape, sort = T) 
```

    ## # A tibble: 29 x 2
    ##    shape         n
    ##    <chr>     <int>
    ##  1 light     13473
    ##  2 triangle   6549
    ##  3 circle     6118
    ##  4 fireball   5148
    ##  5 unknown    4567
    ##  6 other      4466
    ##  7 sphere     4347
    ##  8 disk       4121
    ##  9 oval       3032
    ## 10 formation  1990
    ## # … with 19 more rows

``` r
d %>% separate(datetime, c("Date", "Time"), sep = " ") -> d
d %>% count(Date, sort = T)
```

    ## # A tibble: 9,818 x 2
    ##    Date           n
    ##    <chr>      <int>
    ##  1 7/4/2010     183
    ##  2 7/4/2012     166
    ##  3 11/16/1999   161
    ##  4 7/4/2013     158
    ##  5 7/4/2011     132
    ##  6 9/19/2009    110
    ##  7 1/1/2014      89
    ##  8 10/31/2004    80
    ##  9 12/31/2013    79
    ## 10 7/4/2009      74
    ## # … with 9,808 more rows
…
